Generate GBIF dataset: metadata, figures and tables
…
## # A tibble: 0 × 7
## # … with 7 variables: common_name <chr>, sort_2019 <dbl>,
## #   scientific_name <chr>, family <chr>, family_english <chr>,
## #   taxon_rank <chr>, taxon_id <chr>
## # ℹ Use `colnames()` to see all variable names

counts %>% 
  summarise(common_name) %>% 
  unique() %>% 
  left_join(species.list, by="common_name") 

## # A tibble: 116 × 7
##    common_name               sort_2019 scientif…¹ family famil…² taxon…³ taxon…⁴
##    <chr>                         <dbl> <chr>      <chr>  <chr>   <chr>   <chr>  
##  1 African Fish Eagle              387 Haliaeetu… Accip… Hawks,… Species affeag1
##  2 African Open-Billed Stork       290 Anastomus… Cicon… Storks  Species afrope1
##  3 African Pygmy Kingfisher        503 Ispidina … Alced… Kingfi… Species afpkin1
##  4 African Skimmer                 250 Rynchops … Larid… Gulls,… Species afrski1
##  5 African Spoonbill               320 Platalea … Thres… Ibises… Species afrspo1
##  6 Bar-Tailed Godwit               201 Limosa la… Scolo… Sandpi… Species batgod 
##  7 Black Heron                     316 Egretta a… Ardei… Herons… Species blaher1
##  8 Black-Headed Gull               252 Chroicoce… Larid… Gulls,… Species bkhgul 
##  9 Black-Headed Heron              311 Ardea mel… Ardei… Herons… Species blhher1
## 10 Black-Tailed Godwit             200 Limosa li… Scolo… Sandpi… Species bktgod 
## # … with 106 more rows, and abbreviated variable names ¹​scientific_name,
## #   ²​family_english, ³​taxon_rank, ⁴​taxon_id
## # ℹ Use `print(n = ...)` to see more rows
…
